Created by PLY version 3.11 (http://www.dabeaz.com/ply)

Unused terminals:

    EQUALS

Grammar

Rule 0     S' -> expr
Rule 1     expr -> expression
Rule 2     expr -> item_details
Rule 3     expr -> tableExp
Rule 4     expr -> receiptexpr
Rule 5     expr -> mainviewexpr
Rule 6     expr -> reportexpr
Rule 7     expr -> empty
Rule 8     expr -> EXIT
Rule 9     id -> FLOAT
Rule 10    id -> NUMBER
Rule 11    id -> STRING
Rule 12    boolean -> TRUE
Rule 13    boolean -> FALSE
Rule 14    expression -> expression MULTIPLY expression
Rule 15    expression -> expression DIVIDE expression
Rule 16    expression -> expression PLUS expression
Rule 17    expression -> expression MINUS expression
Rule 18    expression -> FLOAT
Rule 19    expression -> NUMBER
Rule 20    receiptexpr -> RECEIPT SPACE CLEAR SPACE HEAD
Rule 21    receiptexpr -> RECEIPT SPACE CLEAR SPACE BODY
Rule 22    receiptexpr -> RECEIPT SPACE CLEAR SPACE FOOTER
Rule 23    sentence -> sentence PERIOD sentence
Rule 24    sentence -> STRING SPACE sentence
Rule 25    sentence -> STRING COMMA SPACE sentence
Rule 26    sentence -> STRING PERIOD SPACE sentence
Rule 27    sentence -> STRING PERIOD COLON
Rule 28    sentence -> NUMBER SPACE sentence
Rule 29    sentence -> NUMBER COMMA SPACE sentence
Rule 30    sentence -> NUMBER PERIOD SPACE sentence
Rule 31    sentence -> NUMBER PERIOD COLON
Rule 32    paragraph -> COLON sentence
Rule 33    receiptexpr -> RECEIPT SPACE APPEND SPACE paragraph SPACE TO SPACE HEAD
Rule 34    receiptexpr -> RECEIPT SPACE APPEND SPACE paragraph SPACE TO SPACE BODY
Rule 35    receiptexpr -> RECEIPT SPACE APPEND SPACE paragraph SPACE TO SPACE FOOTER
Rule 36    mainviewexpr -> VIEW SPACE STRING
Rule 37    mainviewexpr -> VIEW SPACE ADD_ITEM SPACE item_details
Rule 38    mainviewexpr -> VIEW SPACE SET_SHOP_NAME SPACE STRING
Rule 39    mainviewexpr -> VIEW SPACE SET_DIMENSION SPACE NUMBER COMMA SPACE NUMBER
Rule 40    mainviewexpr -> VIEW SPACE SET_CART_ROW_SIZE SPACE NUMBER
Rule 41    mainviewexpr -> VIEW SPACE SET_CART_QUANTITY_ENABLE SPACE boolean
Rule 42    item_details -> STRING COMMA SPACE STRING COMMA SPACE STRING COMMA SPACE FLOAT
Rule 43    tableExp -> TABLE_C SPACE STRING SPACE column
Rule 44    tableExp -> TABLE_R SPACE STRING SPACE column
Rule 45    tableExp -> TABLE_C SPACE STRING
Rule 46    column -> id
Rule 47    column -> id COMMA SPACE column
Rule 48    reportexpr -> REPORT SPACE item_type_enable SPACE boolean
Rule 49    reportexpr -> REPORT SPACE item_enable SPACE boolean
Rule 50    empty -> <empty>

Terminals, with rules where they appear

ADD_ITEM             : 37
APPEND               : 33 34 35
BODY                 : 21 34
CLEAR                : 20 21 22
COLON                : 27 31 32
COMMA                : 25 29 39 42 42 42 47
DIVIDE               : 15
EQUALS               : 
EXIT                 : 8
FALSE                : 13
FLOAT                : 9 18 42
FOOTER               : 22 35
HEAD                 : 20 33
MINUS                : 17
MULTIPLY             : 14
NUMBER               : 10 19 28 29 30 31 39 39 40
PERIOD               : 23 26 27 30 31
PLUS                 : 16
RECEIPT              : 20 21 22 33 34 35
REPORT               : 48 49
SET_CART_QUANTITY_ENABLE : 41
SET_CART_ROW_SIZE    : 40
SET_DIMENSION        : 39
SET_SHOP_NAME        : 38
SPACE                : 20 20 21 21 22 22 24 25 26 28 29 30 33 33 33 33 34 34 34 34 35 35 35 35 36 37 37 38 38 39 39 39 40 40 41 41 42 42 42 43 43 44 44 45 47 48 48 49 49
STRING               : 11 24 25 26 27 36 38 42 42 42 43 44 45
TABLE_C              : 43 45
TABLE_R              : 44
TO                   : 33 34 35
TRUE                 : 12
VIEW                 : 36 37 38 39 40 41
error                : 
item_enable          : 49
item_type_enable     : 48

Nonterminals, with rules where they appear

boolean              : 41 48 49
column               : 43 44 47
empty                : 7
expr                 : 0
expression           : 1 14 14 15 15 16 16 17 17
id                   : 46 47
item_details         : 2 37
mainviewexpr         : 5
paragraph            : 33 34 35
receiptexpr          : 4
reportexpr           : 6
sentence             : 23 23 24 25 26 28 29 30 32
tableExp             : 3

Parsing method: LALR

state 0

    (0) S' -> . expr
    (1) expr -> . expression
    (2) expr -> . item_details
    (3) expr -> . tableExp
    (4) expr -> . receiptexpr
    (5) expr -> . mainviewexpr
    (6) expr -> . reportexpr
    (7) expr -> . empty
    (8) expr -> . EXIT
    (14) expression -> . expression MULTIPLY expression
    (15) expression -> . expression DIVIDE expression
    (16) expression -> . expression PLUS expression
    (17) expression -> . expression MINUS expression
    (18) expression -> . FLOAT
    (19) expression -> . NUMBER
    (42) item_details -> . STRING COMMA SPACE STRING COMMA SPACE STRING COMMA SPACE FLOAT
    (43) tableExp -> . TABLE_C SPACE STRING SPACE column
    (44) tableExp -> . TABLE_R SPACE STRING SPACE column
    (45) tableExp -> . TABLE_C SPACE STRING
    (20) receiptexpr -> . RECEIPT SPACE CLEAR SPACE HEAD
    (21) receiptexpr -> . RECEIPT SPACE CLEAR SPACE BODY
    (22) receiptexpr -> . RECEIPT SPACE CLEAR SPACE FOOTER
    (33) receiptexpr -> . RECEIPT SPACE APPEND SPACE paragraph SPACE TO SPACE HEAD
    (34) receiptexpr -> . RECEIPT SPACE APPEND SPACE paragraph SPACE TO SPACE BODY
    (35) receiptexpr -> . RECEIPT SPACE APPEND SPACE paragraph SPACE TO SPACE FOOTER
    (36) mainviewexpr -> . VIEW SPACE STRING
    (37) mainviewexpr -> . VIEW SPACE ADD_ITEM SPACE item_details
    (38) mainviewexpr -> . VIEW SPACE SET_SHOP_NAME SPACE STRING
    (39) mainviewexpr -> . VIEW SPACE SET_DIMENSION SPACE NUMBER COMMA SPACE NUMBER
    (40) mainviewexpr -> . VIEW SPACE SET_CART_ROW_SIZE SPACE NUMBER
    (41) mainviewexpr -> . VIEW SPACE SET_CART_QUANTITY_ENABLE SPACE boolean
    (48) reportexpr -> . REPORT SPACE item_type_enable SPACE boolean
    (49) reportexpr -> . REPORT SPACE item_enable SPACE boolean
    (50) empty -> .

    EXIT            shift and go to state 11
    FLOAT           shift and go to state 16
    NUMBER          shift and go to state 12
    STRING          shift and go to state 2
    TABLE_C         shift and go to state 7
    TABLE_R         shift and go to state 8
    RECEIPT         shift and go to state 10
    VIEW            shift and go to state 13
    REPORT          shift and go to state 17
    $end            reduce using rule 50 (empty -> .)

    empty                          shift and go to state 14
    mainviewexpr                   shift and go to state 1
    receiptexpr                    shift and go to state 5
    tableExp                       shift and go to state 3
    reportexpr                     shift and go to state 9
    expr                           shift and go to state 15
    item_details                   shift and go to state 6
    expression                     shift and go to state 4

state 1

    (5) expr -> mainviewexpr .

    $end            reduce using rule 5 (expr -> mainviewexpr .)


state 2

    (42) item_details -> STRING . COMMA SPACE STRING COMMA SPACE STRING COMMA SPACE FLOAT

    COMMA           shift and go to state 18


state 3

    (3) expr -> tableExp .

    $end            reduce using rule 3 (expr -> tableExp .)


state 4

    (1) expr -> expression .
    (14) expression -> expression . MULTIPLY expression
    (15) expression -> expression . DIVIDE expression
    (16) expression -> expression . PLUS expression
    (17) expression -> expression . MINUS expression

    $end            reduce using rule 1 (expr -> expression .)
    MULTIPLY        shift and go to state 21
    DIVIDE          shift and go to state 22
    PLUS            shift and go to state 20
    MINUS           shift and go to state 19


state 5

    (4) expr -> receiptexpr .

    $end            reduce using rule 4 (expr -> receiptexpr .)


state 6

    (2) expr -> item_details .

    $end            reduce using rule 2 (expr -> item_details .)


state 7

    (43) tableExp -> TABLE_C . SPACE STRING SPACE column
    (45) tableExp -> TABLE_C . SPACE STRING

    SPACE           shift and go to state 23


state 8

    (44) tableExp -> TABLE_R . SPACE STRING SPACE column

    SPACE           shift and go to state 24


state 9

    (6) expr -> reportexpr .

    $end            reduce using rule 6 (expr -> reportexpr .)


state 10

    (20) receiptexpr -> RECEIPT . SPACE CLEAR SPACE HEAD
    (21) receiptexpr -> RECEIPT . SPACE CLEAR SPACE BODY
    (22) receiptexpr -> RECEIPT . SPACE CLEAR SPACE FOOTER
    (33) receiptexpr -> RECEIPT . SPACE APPEND SPACE paragraph SPACE TO SPACE HEAD
    (34) receiptexpr -> RECEIPT . SPACE APPEND SPACE paragraph SPACE TO SPACE BODY
    (35) receiptexpr -> RECEIPT . SPACE APPEND SPACE paragraph SPACE TO SPACE FOOTER

    SPACE           shift and go to state 25


state 11

    (8) expr -> EXIT .

    $end            reduce using rule 8 (expr -> EXIT .)


state 12

    (19) expression -> NUMBER .

    MULTIPLY        reduce using rule 19 (expression -> NUMBER .)
    DIVIDE          reduce using rule 19 (expression -> NUMBER .)
    PLUS            reduce using rule 19 (expression -> NUMBER .)
    MINUS           reduce using rule 19 (expression -> NUMBER .)
    $end            reduce using rule 19 (expression -> NUMBER .)


state 13

    (36) mainviewexpr -> VIEW . SPACE STRING
    (37) mainviewexpr -> VIEW . SPACE ADD_ITEM SPACE item_details
    (38) mainviewexpr -> VIEW . SPACE SET_SHOP_NAME SPACE STRING
    (39) mainviewexpr -> VIEW . SPACE SET_DIMENSION SPACE NUMBER COMMA SPACE NUMBER
    (40) mainviewexpr -> VIEW . SPACE SET_CART_ROW_SIZE SPACE NUMBER
    (41) mainviewexpr -> VIEW . SPACE SET_CART_QUANTITY_ENABLE SPACE boolean

    SPACE           shift and go to state 26


state 14

    (7) expr -> empty .

    $end            reduce using rule 7 (expr -> empty .)


state 15

    (0) S' -> expr .



state 16

    (18) expression -> FLOAT .

    MULTIPLY        reduce using rule 18 (expression -> FLOAT .)
    DIVIDE          reduce using rule 18 (expression -> FLOAT .)
    PLUS            reduce using rule 18 (expression -> FLOAT .)
    MINUS           reduce using rule 18 (expression -> FLOAT .)
    $end            reduce using rule 18 (expression -> FLOAT .)


state 17

    (48) reportexpr -> REPORT . SPACE item_type_enable SPACE boolean
    (49) reportexpr -> REPORT . SPACE item_enable SPACE boolean

    SPACE           shift and go to state 27


state 18

    (42) item_details -> STRING COMMA . SPACE STRING COMMA SPACE STRING COMMA SPACE FLOAT

    SPACE           shift and go to state 28


state 19

    (17) expression -> expression MINUS . expression
    (14) expression -> . expression MULTIPLY expression
    (15) expression -> . expression DIVIDE expression
    (16) expression -> . expression PLUS expression
    (17) expression -> . expression MINUS expression
    (18) expression -> . FLOAT
    (19) expression -> . NUMBER

    FLOAT           shift and go to state 16
    NUMBER          shift and go to state 12

    expression                     shift and go to state 29

state 20

    (16) expression -> expression PLUS . expression
    (14) expression -> . expression MULTIPLY expression
    (15) expression -> . expression DIVIDE expression
    (16) expression -> . expression PLUS expression
    (17) expression -> . expression MINUS expression
    (18) expression -> . FLOAT
    (19) expression -> . NUMBER

    FLOAT           shift and go to state 16
    NUMBER          shift and go to state 12

    expression                     shift and go to state 30

state 21

    (14) expression -> expression MULTIPLY . expression
    (14) expression -> . expression MULTIPLY expression
    (15) expression -> . expression DIVIDE expression
    (16) expression -> . expression PLUS expression
    (17) expression -> . expression MINUS expression
    (18) expression -> . FLOAT
    (19) expression -> . NUMBER

    FLOAT           shift and go to state 16
    NUMBER          shift and go to state 12

    expression                     shift and go to state 31

state 22

    (15) expression -> expression DIVIDE . expression
    (14) expression -> . expression MULTIPLY expression
    (15) expression -> . expression DIVIDE expression
    (16) expression -> . expression PLUS expression
    (17) expression -> . expression MINUS expression
    (18) expression -> . FLOAT
    (19) expression -> . NUMBER

    FLOAT           shift and go to state 16
    NUMBER          shift and go to state 12

    expression                     shift and go to state 32

state 23

    (43) tableExp -> TABLE_C SPACE . STRING SPACE column
    (45) tableExp -> TABLE_C SPACE . STRING

    STRING          shift and go to state 33


state 24

    (44) tableExp -> TABLE_R SPACE . STRING SPACE column

    STRING          shift and go to state 34


state 25

    (20) receiptexpr -> RECEIPT SPACE . CLEAR SPACE HEAD
    (21) receiptexpr -> RECEIPT SPACE . CLEAR SPACE BODY
    (22) receiptexpr -> RECEIPT SPACE . CLEAR SPACE FOOTER
    (33) receiptexpr -> RECEIPT SPACE . APPEND SPACE paragraph SPACE TO SPACE HEAD
    (34) receiptexpr -> RECEIPT SPACE . APPEND SPACE paragraph SPACE TO SPACE BODY
    (35) receiptexpr -> RECEIPT SPACE . APPEND SPACE paragraph SPACE TO SPACE FOOTER

    CLEAR           shift and go to state 35
    APPEND          shift and go to state 36


state 26

    (36) mainviewexpr -> VIEW SPACE . STRING
    (37) mainviewexpr -> VIEW SPACE . ADD_ITEM SPACE item_details
    (38) mainviewexpr -> VIEW SPACE . SET_SHOP_NAME SPACE STRING
    (39) mainviewexpr -> VIEW SPACE . SET_DIMENSION SPACE NUMBER COMMA SPACE NUMBER
    (40) mainviewexpr -> VIEW SPACE . SET_CART_ROW_SIZE SPACE NUMBER
    (41) mainviewexpr -> VIEW SPACE . SET_CART_QUANTITY_ENABLE SPACE boolean

    STRING          shift and go to state 38
    ADD_ITEM        shift and go to state 41
    SET_SHOP_NAME   shift and go to state 42
    SET_DIMENSION   shift and go to state 37
    SET_CART_ROW_SIZE shift and go to state 39
    SET_CART_QUANTITY_ENABLE shift and go to state 40


state 27

    (48) reportexpr -> REPORT SPACE . item_type_enable SPACE boolean
    (49) reportexpr -> REPORT SPACE . item_enable SPACE boolean

    item_type_enable shift and go to state 44
    item_enable     shift and go to state 43


state 28

    (42) item_details -> STRING COMMA SPACE . STRING COMMA SPACE STRING COMMA SPACE FLOAT

    STRING          shift and go to state 45


state 29

    (17) expression -> expression MINUS expression .
    (14) expression -> expression . MULTIPLY expression
    (15) expression -> expression . DIVIDE expression
    (16) expression -> expression . PLUS expression
    (17) expression -> expression . MINUS expression

    PLUS            reduce using rule 17 (expression -> expression MINUS expression .)
    MINUS           reduce using rule 17 (expression -> expression MINUS expression .)
    $end            reduce using rule 17 (expression -> expression MINUS expression .)
    MULTIPLY        shift and go to state 21
    DIVIDE          shift and go to state 22

  ! MULTIPLY        [ reduce using rule 17 (expression -> expression MINUS expression .) ]
  ! DIVIDE          [ reduce using rule 17 (expression -> expression MINUS expression .) ]
  ! PLUS            [ shift and go to state 20 ]
  ! MINUS           [ shift and go to state 19 ]


state 30

    (16) expression -> expression PLUS expression .
    (14) expression -> expression . MULTIPLY expression
    (15) expression -> expression . DIVIDE expression
    (16) expression -> expression . PLUS expression
    (17) expression -> expression . MINUS expression

    PLUS            reduce using rule 16 (expression -> expression PLUS expression .)
    MINUS           reduce using rule 16 (expression -> expression PLUS expression .)
    $end            reduce using rule 16 (expression -> expression PLUS expression .)
    MULTIPLY        shift and go to state 21
    DIVIDE          shift and go to state 22

  ! MULTIPLY        [ reduce using rule 16 (expression -> expression PLUS expression .) ]
  ! DIVIDE          [ reduce using rule 16 (expression -> expression PLUS expression .) ]
  ! PLUS            [ shift and go to state 20 ]
  ! MINUS           [ shift and go to state 19 ]


state 31

    (14) expression -> expression MULTIPLY expression .
    (14) expression -> expression . MULTIPLY expression
    (15) expression -> expression . DIVIDE expression
    (16) expression -> expression . PLUS expression
    (17) expression -> expression . MINUS expression

    MULTIPLY        reduce using rule 14 (expression -> expression MULTIPLY expression .)
    DIVIDE          reduce using rule 14 (expression -> expression MULTIPLY expression .)
    PLUS            reduce using rule 14 (expression -> expression MULTIPLY expression .)
    MINUS           reduce using rule 14 (expression -> expression MULTIPLY expression .)
    $end            reduce using rule 14 (expression -> expression MULTIPLY expression .)

  ! MULTIPLY        [ shift and go to state 21 ]
  ! DIVIDE          [ shift and go to state 22 ]
  ! PLUS            [ shift and go to state 20 ]
  ! MINUS           [ shift and go to state 19 ]


state 32

    (15) expression -> expression DIVIDE expression .
    (14) expression -> expression . MULTIPLY expression
    (15) expression -> expression . DIVIDE expression
    (16) expression -> expression . PLUS expression
    (17) expression -> expression . MINUS expression

    MULTIPLY        reduce using rule 15 (expression -> expression DIVIDE expression .)
    DIVIDE          reduce using rule 15 (expression -> expression DIVIDE expression .)
    PLUS            reduce using rule 15 (expression -> expression DIVIDE expression .)
    MINUS           reduce using rule 15 (expression -> expression DIVIDE expression .)
    $end            reduce using rule 15 (expression -> expression DIVIDE expression .)

  ! MULTIPLY        [ shift and go to state 21 ]
  ! DIVIDE          [ shift and go to state 22 ]
  ! PLUS            [ shift and go to state 20 ]
  ! MINUS           [ shift and go to state 19 ]


state 33

    (43) tableExp -> TABLE_C SPACE STRING . SPACE column
    (45) tableExp -> TABLE_C SPACE STRING .

    SPACE           shift and go to state 46
    $end            reduce using rule 45 (tableExp -> TABLE_C SPACE STRING .)


state 34

    (44) tableExp -> TABLE_R SPACE STRING . SPACE column

    SPACE           shift and go to state 47


state 35

    (20) receiptexpr -> RECEIPT SPACE CLEAR . SPACE HEAD
    (21) receiptexpr -> RECEIPT SPACE CLEAR . SPACE BODY
    (22) receiptexpr -> RECEIPT SPACE CLEAR . SPACE FOOTER

    SPACE           shift and go to state 48


state 36

    (33) receiptexpr -> RECEIPT SPACE APPEND . SPACE paragraph SPACE TO SPACE HEAD
    (34) receiptexpr -> RECEIPT SPACE APPEND . SPACE paragraph SPACE TO SPACE BODY
    (35) receiptexpr -> RECEIPT SPACE APPEND . SPACE paragraph SPACE TO SPACE FOOTER

    SPACE           shift and go to state 49


state 37

    (39) mainviewexpr -> VIEW SPACE SET_DIMENSION . SPACE NUMBER COMMA SPACE NUMBER

    SPACE           shift and go to state 50


state 38

    (36) mainviewexpr -> VIEW SPACE STRING .

    $end            reduce using rule 36 (mainviewexpr -> VIEW SPACE STRING .)


state 39

    (40) mainviewexpr -> VIEW SPACE SET_CART_ROW_SIZE . SPACE NUMBER

    SPACE           shift and go to state 51


state 40

    (41) mainviewexpr -> VIEW SPACE SET_CART_QUANTITY_ENABLE . SPACE boolean

    SPACE           shift and go to state 52


state 41

    (37) mainviewexpr -> VIEW SPACE ADD_ITEM . SPACE item_details

    SPACE           shift and go to state 53


state 42

    (38) mainviewexpr -> VIEW SPACE SET_SHOP_NAME . SPACE STRING

    SPACE           shift and go to state 54


state 43

    (49) reportexpr -> REPORT SPACE item_enable . SPACE boolean

    SPACE           shift and go to state 55


state 44

    (48) reportexpr -> REPORT SPACE item_type_enable . SPACE boolean

    SPACE           shift and go to state 56


state 45

    (42) item_details -> STRING COMMA SPACE STRING . COMMA SPACE STRING COMMA SPACE FLOAT

    COMMA           shift and go to state 57


state 46

    (43) tableExp -> TABLE_C SPACE STRING SPACE . column
    (46) column -> . id
    (47) column -> . id COMMA SPACE column
    (9) id -> . FLOAT
    (10) id -> . NUMBER
    (11) id -> . STRING

    FLOAT           shift and go to state 62
    NUMBER          shift and go to state 60
    STRING          shift and go to state 59

    id                             shift and go to state 61
    column                         shift and go to state 58

state 47

    (44) tableExp -> TABLE_R SPACE STRING SPACE . column
    (46) column -> . id
    (47) column -> . id COMMA SPACE column
    (9) id -> . FLOAT
    (10) id -> . NUMBER
    (11) id -> . STRING

    FLOAT           shift and go to state 62
    NUMBER          shift and go to state 60
    STRING          shift and go to state 59

    id                             shift and go to state 61
    column                         shift and go to state 63

state 48

    (20) receiptexpr -> RECEIPT SPACE CLEAR SPACE . HEAD
    (21) receiptexpr -> RECEIPT SPACE CLEAR SPACE . BODY
    (22) receiptexpr -> RECEIPT SPACE CLEAR SPACE . FOOTER

    HEAD            shift and go to state 64
    BODY            shift and go to state 65
    FOOTER          shift and go to state 66


state 49

    (33) receiptexpr -> RECEIPT SPACE APPEND SPACE . paragraph SPACE TO SPACE HEAD
    (34) receiptexpr -> RECEIPT SPACE APPEND SPACE . paragraph SPACE TO SPACE BODY
    (35) receiptexpr -> RECEIPT SPACE APPEND SPACE . paragraph SPACE TO SPACE FOOTER
    (32) paragraph -> . COLON sentence

    COLON           shift and go to state 67

    paragraph                      shift and go to state 68

state 50

    (39) mainviewexpr -> VIEW SPACE SET_DIMENSION SPACE . NUMBER COMMA SPACE NUMBER

    NUMBER          shift and go to state 69


state 51

    (40) mainviewexpr -> VIEW SPACE SET_CART_ROW_SIZE SPACE . NUMBER

    NUMBER          shift and go to state 70


state 52

    (41) mainviewexpr -> VIEW SPACE SET_CART_QUANTITY_ENABLE SPACE . boolean
    (12) boolean -> . TRUE
    (13) boolean -> . FALSE

    TRUE            shift and go to state 72
    FALSE           shift and go to state 71

    boolean                        shift and go to state 73

state 53

    (37) mainviewexpr -> VIEW SPACE ADD_ITEM SPACE . item_details
    (42) item_details -> . STRING COMMA SPACE STRING COMMA SPACE STRING COMMA SPACE FLOAT

    STRING          shift and go to state 2

    item_details                   shift and go to state 74

state 54

    (38) mainviewexpr -> VIEW SPACE SET_SHOP_NAME SPACE . STRING

    STRING          shift and go to state 75


state 55

    (49) reportexpr -> REPORT SPACE item_enable SPACE . boolean
    (12) boolean -> . TRUE
    (13) boolean -> . FALSE

    TRUE            shift and go to state 72
    FALSE           shift and go to state 71

    boolean                        shift and go to state 76

state 56

    (48) reportexpr -> REPORT SPACE item_type_enable SPACE . boolean
    (12) boolean -> . TRUE
    (13) boolean -> . FALSE

    TRUE            shift and go to state 72
    FALSE           shift and go to state 71

    boolean                        shift and go to state 77

state 57

    (42) item_details -> STRING COMMA SPACE STRING COMMA . SPACE STRING COMMA SPACE FLOAT

    SPACE           shift and go to state 78


state 58

    (43) tableExp -> TABLE_C SPACE STRING SPACE column .

    $end            reduce using rule 43 (tableExp -> TABLE_C SPACE STRING SPACE column .)


state 59

    (11) id -> STRING .

    COMMA           reduce using rule 11 (id -> STRING .)
    $end            reduce using rule 11 (id -> STRING .)


state 60

    (10) id -> NUMBER .

    COMMA           reduce using rule 10 (id -> NUMBER .)
    $end            reduce using rule 10 (id -> NUMBER .)


state 61

    (46) column -> id .
    (47) column -> id . COMMA SPACE column

    $end            reduce using rule 46 (column -> id .)
    COMMA           shift and go to state 79


state 62

    (9) id -> FLOAT .

    COMMA           reduce using rule 9 (id -> FLOAT .)
    $end            reduce using rule 9 (id -> FLOAT .)


state 63

    (44) tableExp -> TABLE_R SPACE STRING SPACE column .

    $end            reduce using rule 44 (tableExp -> TABLE_R SPACE STRING SPACE column .)


state 64

    (20) receiptexpr -> RECEIPT SPACE CLEAR SPACE HEAD .

    $end            reduce using rule 20 (receiptexpr -> RECEIPT SPACE CLEAR SPACE HEAD .)


state 65

    (21) receiptexpr -> RECEIPT SPACE CLEAR SPACE BODY .

    $end            reduce using rule 21 (receiptexpr -> RECEIPT SPACE CLEAR SPACE BODY .)


state 66

    (22) receiptexpr -> RECEIPT SPACE CLEAR SPACE FOOTER .

    $end            reduce using rule 22 (receiptexpr -> RECEIPT SPACE CLEAR SPACE FOOTER .)


state 67

    (32) paragraph -> COLON . sentence
    (23) sentence -> . sentence PERIOD sentence
    (24) sentence -> . STRING SPACE sentence
    (25) sentence -> . STRING COMMA SPACE sentence
    (26) sentence -> . STRING PERIOD SPACE sentence
    (27) sentence -> . STRING PERIOD COLON
    (28) sentence -> . NUMBER SPACE sentence
    (29) sentence -> . NUMBER COMMA SPACE sentence
    (30) sentence -> . NUMBER PERIOD SPACE sentence
    (31) sentence -> . NUMBER PERIOD COLON

    STRING          shift and go to state 80
    NUMBER          shift and go to state 81

    sentence                       shift and go to state 82

state 68

    (33) receiptexpr -> RECEIPT SPACE APPEND SPACE paragraph . SPACE TO SPACE HEAD
    (34) receiptexpr -> RECEIPT SPACE APPEND SPACE paragraph . SPACE TO SPACE BODY
    (35) receiptexpr -> RECEIPT SPACE APPEND SPACE paragraph . SPACE TO SPACE FOOTER

    SPACE           shift and go to state 83


state 69

    (39) mainviewexpr -> VIEW SPACE SET_DIMENSION SPACE NUMBER . COMMA SPACE NUMBER

    COMMA           shift and go to state 84


state 70

    (40) mainviewexpr -> VIEW SPACE SET_CART_ROW_SIZE SPACE NUMBER .

    $end            reduce using rule 40 (mainviewexpr -> VIEW SPACE SET_CART_ROW_SIZE SPACE NUMBER .)


state 71

    (13) boolean -> FALSE .

    $end            reduce using rule 13 (boolean -> FALSE .)


state 72

    (12) boolean -> TRUE .

    $end            reduce using rule 12 (boolean -> TRUE .)


state 73

    (41) mainviewexpr -> VIEW SPACE SET_CART_QUANTITY_ENABLE SPACE boolean .

    $end            reduce using rule 41 (mainviewexpr -> VIEW SPACE SET_CART_QUANTITY_ENABLE SPACE boolean .)


state 74

    (37) mainviewexpr -> VIEW SPACE ADD_ITEM SPACE item_details .

    $end            reduce using rule 37 (mainviewexpr -> VIEW SPACE ADD_ITEM SPACE item_details .)


state 75

    (38) mainviewexpr -> VIEW SPACE SET_SHOP_NAME SPACE STRING .

    $end            reduce using rule 38 (mainviewexpr -> VIEW SPACE SET_SHOP_NAME SPACE STRING .)


state 76

    (49) reportexpr -> REPORT SPACE item_enable SPACE boolean .

    $end            reduce using rule 49 (reportexpr -> REPORT SPACE item_enable SPACE boolean .)


state 77

    (48) reportexpr -> REPORT SPACE item_type_enable SPACE boolean .

    $end            reduce using rule 48 (reportexpr -> REPORT SPACE item_type_enable SPACE boolean .)


state 78

    (42) item_details -> STRING COMMA SPACE STRING COMMA SPACE . STRING COMMA SPACE FLOAT

    STRING          shift and go to state 85


state 79

    (47) column -> id COMMA . SPACE column

    SPACE           shift and go to state 86


state 80

    (24) sentence -> STRING . SPACE sentence
    (25) sentence -> STRING . COMMA SPACE sentence
    (26) sentence -> STRING . PERIOD SPACE sentence
    (27) sentence -> STRING . PERIOD COLON

    SPACE           shift and go to state 88
    COMMA           shift and go to state 89
    PERIOD          shift and go to state 87


state 81

    (28) sentence -> NUMBER . SPACE sentence
    (29) sentence -> NUMBER . COMMA SPACE sentence
    (30) sentence -> NUMBER . PERIOD SPACE sentence
    (31) sentence -> NUMBER . PERIOD COLON

    SPACE           shift and go to state 91
    COMMA           shift and go to state 92
    PERIOD          shift and go to state 90


state 82

    (32) paragraph -> COLON sentence .
    (23) sentence -> sentence . PERIOD sentence

    SPACE           reduce using rule 32 (paragraph -> COLON sentence .)
    PERIOD          shift and go to state 93


state 83

    (33) receiptexpr -> RECEIPT SPACE APPEND SPACE paragraph SPACE . TO SPACE HEAD
    (34) receiptexpr -> RECEIPT SPACE APPEND SPACE paragraph SPACE . TO SPACE BODY
    (35) receiptexpr -> RECEIPT SPACE APPEND SPACE paragraph SPACE . TO SPACE FOOTER

    TO              shift and go to state 94


state 84

    (39) mainviewexpr -> VIEW SPACE SET_DIMENSION SPACE NUMBER COMMA . SPACE NUMBER

    SPACE           shift and go to state 95


state 85

    (42) item_details -> STRING COMMA SPACE STRING COMMA SPACE STRING . COMMA SPACE FLOAT

    COMMA           shift and go to state 96


state 86

    (47) column -> id COMMA SPACE . column
    (46) column -> . id
    (47) column -> . id COMMA SPACE column
    (9) id -> . FLOAT
    (10) id -> . NUMBER
    (11) id -> . STRING

    FLOAT           shift and go to state 62
    NUMBER          shift and go to state 60
    STRING          shift and go to state 59

    id                             shift and go to state 61
    column                         shift and go to state 97

state 87

    (26) sentence -> STRING PERIOD . SPACE sentence
    (27) sentence -> STRING PERIOD . COLON

    SPACE           shift and go to state 99
    COLON           shift and go to state 98


state 88

    (24) sentence -> STRING SPACE . sentence
    (23) sentence -> . sentence PERIOD sentence
    (24) sentence -> . STRING SPACE sentence
    (25) sentence -> . STRING COMMA SPACE sentence
    (26) sentence -> . STRING PERIOD SPACE sentence
    (27) sentence -> . STRING PERIOD COLON
    (28) sentence -> . NUMBER SPACE sentence
    (29) sentence -> . NUMBER COMMA SPACE sentence
    (30) sentence -> . NUMBER PERIOD SPACE sentence
    (31) sentence -> . NUMBER PERIOD COLON

    STRING          shift and go to state 80
    NUMBER          shift and go to state 81

    sentence                       shift and go to state 100

state 89

    (25) sentence -> STRING COMMA . SPACE sentence

    SPACE           shift and go to state 101


state 90

    (30) sentence -> NUMBER PERIOD . SPACE sentence
    (31) sentence -> NUMBER PERIOD . COLON

    SPACE           shift and go to state 102
    COLON           shift and go to state 103


state 91

    (28) sentence -> NUMBER SPACE . sentence
    (23) sentence -> . sentence PERIOD sentence
    (24) sentence -> . STRING SPACE sentence
    (25) sentence -> . STRING COMMA SPACE sentence
    (26) sentence -> . STRING PERIOD SPACE sentence
    (27) sentence -> . STRING PERIOD COLON
    (28) sentence -> . NUMBER SPACE sentence
    (29) sentence -> . NUMBER COMMA SPACE sentence
    (30) sentence -> . NUMBER PERIOD SPACE sentence
    (31) sentence -> . NUMBER PERIOD COLON

    STRING          shift and go to state 80
    NUMBER          shift and go to state 81

    sentence                       shift and go to state 104

state 92

    (29) sentence -> NUMBER COMMA . SPACE sentence

    SPACE           shift and go to state 105


state 93

    (23) sentence -> sentence PERIOD . sentence
    (23) sentence -> . sentence PERIOD sentence
    (24) sentence -> . STRING SPACE sentence
    (25) sentence -> . STRING COMMA SPACE sentence
    (26) sentence -> . STRING PERIOD SPACE sentence
    (27) sentence -> . STRING PERIOD COLON
    (28) sentence -> . NUMBER SPACE sentence
    (29) sentence -> . NUMBER COMMA SPACE sentence
    (30) sentence -> . NUMBER PERIOD SPACE sentence
    (31) sentence -> . NUMBER PERIOD COLON

    STRING          shift and go to state 80
    NUMBER          shift and go to state 81

    sentence                       shift and go to state 106

state 94

    (33) receiptexpr -> RECEIPT SPACE APPEND SPACE paragraph SPACE TO . SPACE HEAD
    (34) receiptexpr -> RECEIPT SPACE APPEND SPACE paragraph SPACE TO . SPACE BODY
    (35) receiptexpr -> RECEIPT SPACE APPEND SPACE paragraph SPACE TO . SPACE FOOTER

    SPACE           shift and go to state 107


state 95

    (39) mainviewexpr -> VIEW SPACE SET_DIMENSION SPACE NUMBER COMMA SPACE . NUMBER

    NUMBER          shift and go to state 108


state 96

    (42) item_details -> STRING COMMA SPACE STRING COMMA SPACE STRING COMMA . SPACE FLOAT

    SPACE           shift and go to state 109


state 97

    (47) column -> id COMMA SPACE column .

    $end            reduce using rule 47 (column -> id COMMA SPACE column .)


state 98

    (27) sentence -> STRING PERIOD COLON .

    PERIOD          reduce using rule 27 (sentence -> STRING PERIOD COLON .)
    SPACE           reduce using rule 27 (sentence -> STRING PERIOD COLON .)


state 99

    (26) sentence -> STRING PERIOD SPACE . sentence
    (23) sentence -> . sentence PERIOD sentence
    (24) sentence -> . STRING SPACE sentence
    (25) sentence -> . STRING COMMA SPACE sentence
    (26) sentence -> . STRING PERIOD SPACE sentence
    (27) sentence -> . STRING PERIOD COLON
    (28) sentence -> . NUMBER SPACE sentence
    (29) sentence -> . NUMBER COMMA SPACE sentence
    (30) sentence -> . NUMBER PERIOD SPACE sentence
    (31) sentence -> . NUMBER PERIOD COLON

    STRING          shift and go to state 80
    NUMBER          shift and go to state 81

    sentence                       shift and go to state 110

state 100

    (24) sentence -> STRING SPACE sentence .
    (23) sentence -> sentence . PERIOD sentence

  ! shift/reduce conflict for PERIOD resolved as shift
    SPACE           reduce using rule 24 (sentence -> STRING SPACE sentence .)
    PERIOD          shift and go to state 93

  ! PERIOD          [ reduce using rule 24 (sentence -> STRING SPACE sentence .) ]


state 101

    (25) sentence -> STRING COMMA SPACE . sentence
    (23) sentence -> . sentence PERIOD sentence
    (24) sentence -> . STRING SPACE sentence
    (25) sentence -> . STRING COMMA SPACE sentence
    (26) sentence -> . STRING PERIOD SPACE sentence
    (27) sentence -> . STRING PERIOD COLON
    (28) sentence -> . NUMBER SPACE sentence
    (29) sentence -> . NUMBER COMMA SPACE sentence
    (30) sentence -> . NUMBER PERIOD SPACE sentence
    (31) sentence -> . NUMBER PERIOD COLON

    STRING          shift and go to state 80
    NUMBER          shift and go to state 81

    sentence                       shift and go to state 111

state 102

    (30) sentence -> NUMBER PERIOD SPACE . sentence
    (23) sentence -> . sentence PERIOD sentence
    (24) sentence -> . STRING SPACE sentence
    (25) sentence -> . STRING COMMA SPACE sentence
    (26) sentence -> . STRING PERIOD SPACE sentence
    (27) sentence -> . STRING PERIOD COLON
    (28) sentence -> . NUMBER SPACE sentence
    (29) sentence -> . NUMBER COMMA SPACE sentence
    (30) sentence -> . NUMBER PERIOD SPACE sentence
    (31) sentence -> . NUMBER PERIOD COLON

    STRING          shift and go to state 80
    NUMBER          shift and go to state 81

    sentence                       shift and go to state 112

state 103

    (31) sentence -> NUMBER PERIOD COLON .

    PERIOD          reduce using rule 31 (sentence -> NUMBER PERIOD COLON .)
    SPACE           reduce using rule 31 (sentence -> NUMBER PERIOD COLON .)


state 104

    (28) sentence -> NUMBER SPACE sentence .
    (23) sentence -> sentence . PERIOD sentence

  ! shift/reduce conflict for PERIOD resolved as shift
    SPACE           reduce using rule 28 (sentence -> NUMBER SPACE sentence .)
    PERIOD          shift and go to state 93

  ! PERIOD          [ reduce using rule 28 (sentence -> NUMBER SPACE sentence .) ]


state 105

    (29) sentence -> NUMBER COMMA SPACE . sentence
    (23) sentence -> . sentence PERIOD sentence
    (24) sentence -> . STRING SPACE sentence
    (25) sentence -> . STRING COMMA SPACE sentence
    (26) sentence -> . STRING PERIOD SPACE sentence
    (27) sentence -> . STRING PERIOD COLON
    (28) sentence -> . NUMBER SPACE sentence
    (29) sentence -> . NUMBER COMMA SPACE sentence
    (30) sentence -> . NUMBER PERIOD SPACE sentence
    (31) sentence -> . NUMBER PERIOD COLON

    STRING          shift and go to state 80
    NUMBER          shift and go to state 81

    sentence                       shift and go to state 113

state 106

    (23) sentence -> sentence PERIOD sentence .
    (23) sentence -> sentence . PERIOD sentence

  ! shift/reduce conflict for PERIOD resolved as shift
    SPACE           reduce using rule 23 (sentence -> sentence PERIOD sentence .)
    PERIOD          shift and go to state 93

  ! PERIOD          [ reduce using rule 23 (sentence -> sentence PERIOD sentence .) ]


state 107

    (33) receiptexpr -> RECEIPT SPACE APPEND SPACE paragraph SPACE TO SPACE . HEAD
    (34) receiptexpr -> RECEIPT SPACE APPEND SPACE paragraph SPACE TO SPACE . BODY
    (35) receiptexpr -> RECEIPT SPACE APPEND SPACE paragraph SPACE TO SPACE . FOOTER

    HEAD            shift and go to state 114
    BODY            shift and go to state 115
    FOOTER          shift and go to state 116


state 108

    (39) mainviewexpr -> VIEW SPACE SET_DIMENSION SPACE NUMBER COMMA SPACE NUMBER .

    $end            reduce using rule 39 (mainviewexpr -> VIEW SPACE SET_DIMENSION SPACE NUMBER COMMA SPACE NUMBER .)


state 109

    (42) item_details -> STRING COMMA SPACE STRING COMMA SPACE STRING COMMA SPACE . FLOAT

    FLOAT           shift and go to state 117


state 110

    (26) sentence -> STRING PERIOD SPACE sentence .
    (23) sentence -> sentence . PERIOD sentence

  ! shift/reduce conflict for PERIOD resolved as shift
    SPACE           reduce using rule 26 (sentence -> STRING PERIOD SPACE sentence .)
    PERIOD          shift and go to state 93

  ! PERIOD          [ reduce using rule 26 (sentence -> STRING PERIOD SPACE sentence .) ]


state 111

    (25) sentence -> STRING COMMA SPACE sentence .
    (23) sentence -> sentence . PERIOD sentence

  ! shift/reduce conflict for PERIOD resolved as shift
    SPACE           reduce using rule 25 (sentence -> STRING COMMA SPACE sentence .)
    PERIOD          shift and go to state 93

  ! PERIOD          [ reduce using rule 25 (sentence -> STRING COMMA SPACE sentence .) ]


state 112

    (30) sentence -> NUMBER PERIOD SPACE sentence .
    (23) sentence -> sentence . PERIOD sentence

  ! shift/reduce conflict for PERIOD resolved as shift
    SPACE           reduce using rule 30 (sentence -> NUMBER PERIOD SPACE sentence .)
    PERIOD          shift and go to state 93

  ! PERIOD          [ reduce using rule 30 (sentence -> NUMBER PERIOD SPACE sentence .) ]


state 113

    (29) sentence -> NUMBER COMMA SPACE sentence .
    (23) sentence -> sentence . PERIOD sentence

  ! shift/reduce conflict for PERIOD resolved as shift
    SPACE           reduce using rule 29 (sentence -> NUMBER COMMA SPACE sentence .)
    PERIOD          shift and go to state 93

  ! PERIOD          [ reduce using rule 29 (sentence -> NUMBER COMMA SPACE sentence .) ]


state 114

    (33) receiptexpr -> RECEIPT SPACE APPEND SPACE paragraph SPACE TO SPACE HEAD .

    $end            reduce using rule 33 (receiptexpr -> RECEIPT SPACE APPEND SPACE paragraph SPACE TO SPACE HEAD .)


state 115

    (34) receiptexpr -> RECEIPT SPACE APPEND SPACE paragraph SPACE TO SPACE BODY .

    $end            reduce using rule 34 (receiptexpr -> RECEIPT SPACE APPEND SPACE paragraph SPACE TO SPACE BODY .)


state 116

    (35) receiptexpr -> RECEIPT SPACE APPEND SPACE paragraph SPACE TO SPACE FOOTER .

    $end            reduce using rule 35 (receiptexpr -> RECEIPT SPACE APPEND SPACE paragraph SPACE TO SPACE FOOTER .)


state 117

    (42) item_details -> STRING COMMA SPACE STRING COMMA SPACE STRING COMMA SPACE FLOAT .

    $end            reduce using rule 42 (item_details -> STRING COMMA SPACE STRING COMMA SPACE STRING COMMA SPACE FLOAT .)

WARNING: 
WARNING: Conflicts:
WARNING: 
WARNING: shift/reduce conflict for PERIOD in state 100 resolved as shift
WARNING: shift/reduce conflict for PERIOD in state 104 resolved as shift
WARNING: shift/reduce conflict for PERIOD in state 106 resolved as shift
WARNING: shift/reduce conflict for PERIOD in state 110 resolved as shift
WARNING: shift/reduce conflict for PERIOD in state 111 resolved as shift
WARNING: shift/reduce conflict for PERIOD in state 112 resolved as shift
WARNING: shift/reduce conflict for PERIOD in state 113 resolved as shift
